{
    "data": [
        {
            "id": "l88j5r",
            "url": "https:\/\/wallhaven.cc\/w\/l88j5r",
            "short_url": "https:\/\/whvn.cc\/l88j5r",
            "views": 5,
            "favorites": 9,
            "source": "",
            "purity": "sketchy",
            "category": "anime",
            "dimension_x": 2508,
            "dimension_y": 3541,
            "resolution": "2508x3541",
            "ratio": "0.71",
            "file_size": 3898141,
            "file_type": "image\/jpeg",
            "created_at": "2023-01-17 05:44:36",
            "colors": [
                "#ffffff",
                "#424153",
                "#cccccc",
                "#999999",
                "#e7d8b1"
            ],
            "path": "https:\/\/w.wallhaven.cc\/full\/l8\/wallhaven-l88j5r.jpg",
            "thumbs": {
                "large": "https:\/\/th.wallhaven.cc\/lg\/l8\/l88j5r.jpg",
                "original": "https:\/\/th.wallhaven.cc\/orig\/l8\/l88j5r.jpg",
                "small": "https:\/\/th.wallhaven.cc\/small\/l8\/l88j5r.jpg"
            }
        },
        {
            "id": "yxx2yk",
            "url": "https:\/\/wallhaven.cc\/w\/yxx2yk",
            "short_url": "https:\/\/whvn.cc\/yxx2yk",
            "views": 5,
            "favorites": 16,
            "source": "",
            "purity": "sketchy",
            "category": "anime",
            "dimension_x": 3295,
            "dimension_y": 5715,
            "resolution": "3295x5715",
            "ratio": "0.58",
            "file_size": 15032762,
            "file_type": "image\/jpeg",
            "created_at": "2023-01-17 05:34:36",
            "colors": [
                "#424153",
                "#cccccc",
                "#999999",
                "#ffffff",
                "#abbcda"
            ],
            "path": "https:\/\/w.wallhaven.cc\/full\/yx\/wallhaven-yxx2yk.jpg",
            "thumbs": {
                "large": "https:\/\/th.wallhaven.cc\/lg\/yx\/yxx2yk.jpg",
                "original": "https:\/\/th.wallhaven.cc\/orig\/yx\/yxx2yk.jpg",
                "small": "https:\/\/th.wallhaven.cc\/small\/yx\/yxx2yk.jpg"
            }
        },
        {
            "id": "2yyory",
            "url": "https:\/\/wallhaven.cc\/w\/2yyory",
            "short_url": "https:\/\/whvn.cc\/2yyory",
            "views": 110,
            "favorites": 0,
            "source": "",
            "purity": "sfw",
            "category": "general",
            "dimension_x": 1920,
            "dimension_y": 1080,
            "resolution": "1920x1080",
            "ratio": "1.78",
            "file_size": 748788,
            "file_type": "image\/png",
            "created_at": "2023-01-17 04:17:41",
            "colors": [
                "#424153",
                "#000000",
                "#999999",
                "#e7d8b1",
                "#996633"
            ],
            "path": "https:\/\/w.wallhaven.cc\/full\/2y\/wallhaven-2yyory.png",
            "thumbs": {
                "large": "https:\/\/th.wallhaven.cc\/lg\/2y\/2yyory.jpg",
                "original": "https:\/\/th.wallhaven.cc\/orig\/2y\/2yyory.jpg",
                "small": "https:\/\/th.wallhaven.cc\/small\/2y\/2yyory.jpg"
            }
        },
        {
            "id": "vqqdwp",
            "url": "https:\/\/wallhaven.cc\/w\/vqqdwp",
            "short_url": "https:\/\/whvn.cc\/vqqdwp",
            "views": 77,
            "favorites": 0,
            "source": "",
            "purity": "sfw",
            "category": "general",
            "dimension_x": 1920,
            "dimension_y": 1080,
            "resolution": "1920x1080",
            "ratio": "1.78",
            "file_size": 1318252,
            "file_type": "image\/png",
            "created_at": "2023-01-17 04:17:41",
            "colors": [
                "#424153",
                "#ffffff",
                "#cccccc",
                "#000000",
                "#999999"
            ],
            "path": "https:\/\/w.wallhaven.cc\/full\/vq\/wallhaven-vqqdwp.png",
            "thumbs": {
                "large": "https:\/\/th.wallhaven.cc\/lg\/vq\/vqqdwp.jpg",
                "original": "https:\/\/th.wallhaven.cc\/orig\/vq\/vqqdwp.jpg",
                "small": "https:\/\/th.wallhaven.cc\/small\/vq\/vqqdwp.jpg"
            }
        },
        {
            "id": "jxxymy",
            "url": "https:\/\/wallhaven.cc\/w\/jxxymy",
            "short_url": "https:\/\/whvn.cc\/jxxymy",
            "views": 84,
            "favorites": 4,
            "source": "",
            "purity": "sfw",
            "category": "general",
            "dimension_x": 3840,
            "dimension_y": 2160,
            "resolution": "3840x2160",
            "ratio": "1.78",
            "file_size": 6286893,
            "file_type": "image\/jpeg",
            "created_at": "2023-01-17 04:17:06",
            "colors": [
                "#999999",
                "#424153",
                "#e7d8b1",
                "#000000",
                "#996633"
            ],
            "path": "https:\/\/w.wallhaven.cc\/full\/jx\/wallhaven-jxxymy.jpg",
            "thumbs": {
                "large": "https:\/\/th.wallhaven.cc\/lg\/jx\/jxxymy.jpg",
                "original": "https:\/\/th.wallhaven.cc\/orig\/jx\/jxxymy.jpg",
                "small": "https:\/\/th.wallhaven.cc\/small\/jx\/jxxymy.jpg"
            }
        },
        {
            "id": "yxx2yg",
            "url": "https:\/\/wallhaven.cc\/w\/yxx2yg",
            "short_url": "https:\/\/whvn.cc\/yxx2yg",
            "views": 70,
            "favorites": 2,
            "source": "",
            "purity": "sfw",
            "category": "general",
            "dimension_x": 3840,
            "dimension_y": 2160,
            "resolution": "3840x2160",
            "ratio": "1.78",
            "file_size": 5683951,
            "file_type": "image\/jpeg",
            "created_at": "2023-01-17 04:17:05",
            "colors": [
                "#999999",
                "#000000",
                "#424153",
                "#996633",
                "#e7d8b1"
            ],
            "path": "https:\/\/w.wallhaven.cc\/full\/yx\/wallhaven-yxx2yg.jpg",
            "thumbs": {
                "large": "https:\/\/th.wallhaven.cc\/lg\/yx\/yxx2yg.jpg",
                "original": "https:\/\/th.wallhaven.cc\/orig\/yx\/yxx2yg.jpg",
                "small": "https:\/\/th.wallhaven.cc\/small\/yx\/yxx2yg.jpg"
            }
        },
        {
            "id": "5ggm25",
            "url": "https:\/\/wallhaven.cc\/w\/5ggm25",
            "short_url": "https:\/\/whvn.cc\/5ggm25",
            "views": 50,
            "favorites": 1,
            "source": "",
            "purity": "sfw",
            "category": "general",
            "dimension_x": 3840,
            "dimension_y": 2160,
            "resolution": "3840x2160",
            "ratio": "1.78",
            "file_size": 5794107,
            "file_type": "image\/jpeg",
            "created_at": "2023-01-17 04:17:05",
            "colors": [
                "#999999",
                "#000000",
                "#424153",
                "#663399",
                "#ffffff"
            ],
            "path": "https:\/\/w.wallhaven.cc\/full\/5g\/wallhaven-5ggm25.jpg",
            "thumbs": {
                "large": "https:\/\/th.wallhaven.cc\/lg\/5g\/5ggm25.jpg",
                "original": "https:\/\/th.wallhaven.cc\/orig\/5g\/5ggm25.jpg",
                "small": "https:\/\/th.wallhaven.cc\/small\/5g\/5ggm25.jpg"
            }
        },
        {
            "id": "3ll6d3",
            "url": "https:\/\/wallhaven.cc\/w\/3ll6d3",
            "short_url": "https:\/\/whvn.cc\/3ll6d3",
            "views": 61,
            "favorites": 2,
            "source": "",
            "purity": "sfw",
            "category": "general",
            "dimension_x": 3840,
            "dimension_y": 2160,
            "resolution": "3840x2160",
            "ratio": "1.78",
            "file_size": 5670160,
            "file_type": "image\/jpeg",
            "created_at": "2023-01-17 04:17:05",
            "colors": [
                "#999999",
                "#000000",
                "#cccccc",
                "#ffffff",
                "#424153"
            ],
            "path": "https:\/\/w.wallhaven.cc\/full\/3l\/wallhaven-3ll6d3.jpg",
            "thumbs": {
                "large": "https:\/\/th.wallhaven.cc\/lg\/3l\/3ll6d3.jpg",
                "original": "https:\/\/th.wallhaven.cc\/orig\/3l\/3ll6d3.jpg",
                "small": "https:\/\/th.wallhaven.cc\/small\/3l\/3ll6d3.jpg"
            }
        },
        {
            "id": "l88j52",
            "url": "https:\/\/wallhaven.cc\/w\/l88j52",
            "short_url": "https:\/\/whvn.cc\/l88j52",
            "views": 58,
            "favorites": 2,
            "source": "",
            "purity": "sfw",
            "category": "general",
            "dimension_x": 3840,
            "dimension_y": 2160,
            "resolution": "3840x2160",
            "ratio": "1.78",
            "file_size": 5974651,
            "file_type": "image\/jpeg",
            "created_at": "2023-01-17 04:17:05",
            "colors": [
                "#000000",
                "#996633",
                "#999999",
                "#424153",
                "#e7d8b1"
            ],
            "path": "https:\/\/w.wallhaven.cc\/full\/l8\/wallhaven-l88j52.jpg",
            "thumbs": {
                "large": "https:\/\/th.wallhaven.cc\/lg\/l8\/l88j52.jpg",
                "original": "https:\/\/th.wallhaven.cc\/orig\/l8\/l88j52.jpg",
                "small": "https:\/\/th.wallhaven.cc\/small\/l8\/l88j52.jpg"
            }
        },
        {
            "id": "rrrpk7",
            "url": "https:\/\/wallhaven.cc\/w\/rrrpk7",
            "short_url": "https:\/\/whvn.cc\/rrrpk7",
            "views": 152,
            "favorites": 15,
            "source": "",
            "purity": "sketchy",
            "category": "people",
            "dimension_x": 1920,
            "dimension_y": 1280,
            "resolution": "1920x1280",
            "ratio": "1.5",
            "file_size": 848651,
            "file_type": "image\/jpeg",
            "created_at": "2023-01-17 03:15:41",
            "colors": [
                "#000000",
                "#999999",
                "#424153",
                "#ffffff",
                "#cccccc"
            ],
            "path": "https:\/\/w.wallhaven.cc\/full\/rr\/wallhaven-rrrpk7.jpg",
            "thumbs": {
                "large": "https:\/\/th.wallhaven.cc\/lg\/rr\/rrrpk7.jpg",
                "original": "https:\/\/th.wallhaven.cc\/orig\/rr\/rrrpk7.jpg",
                "small": "https:\/\/th.wallhaven.cc\/small\/rr\/rrrpk7.jpg"
            }
        },
        {
            "id": "6ddpx7",
            "url": "https:\/\/wallhaven.cc\/w\/6ddpx7",
            "short_url": "https:\/\/whvn.cc\/6ddpx7",
            "views": 185,
            "favorites": 29,
            "source": "",
            "purity": "sketchy",
            "category": "people",
            "dimension_x": 1920,
            "dimension_y": 1280,
            "resolution": "1920x1280",
            "ratio": "1.5",
            "file_size": 381984,
            "file_type": "image\/jpeg",
            "created_at": "2023-01-17 02:45:17",
            "colors": [
                "#424153",
                "#999999",
                "#cccccc",
                "#000000",
                "#333399"
            ],
            "path": "https:\/\/w.wallhaven.cc\/full\/6d\/wallhaven-6ddpx7.jpg",
            "thumbs": {
                "large": "https:\/\/th.wallhaven.cc\/lg\/6d\/6ddpx7.jpg",
                "original": "https:\/\/th.wallhaven.cc\/orig\/6d\/6ddpx7.jpg",
                "small": "https:\/\/th.wallhaven.cc\/small\/6d\/6ddpx7.jpg"
            }
        },
        {
            "id": "8559qy",
            "url": "https:\/\/wallhaven.cc\/w\/8559qy",
            "short_url": "https:\/\/whvn.cc\/8559qy",
            "views": 261,
            "favorites": 17,
            "source": "",
            "purity": "sketchy",
            "category": "anime",
            "dimension_x": 2728,
            "dimension_y": 4154,
            "resolution": "2728x4154",
            "ratio": "0.66",
            "file_size": 6606298,
            "file_type": "image\/jpeg",
            "created_at": "2023-01-17 01:47:15",
            "colors": [
                "#999999",
                "#424153",
                "#996633",
                "#e7d8b1",
                "#ffffff"
            ],
            "path": "https:\/\/w.wallhaven.cc\/full\/85\/wallhaven-8559qy.jpg",
            "thumbs": {
                "large": "https:\/\/th.wallhaven.cc\/lg\/85\/8559qy.jpg",
                "original": "https:\/\/th.wallhaven.cc\/orig\/85\/8559qy.jpg",
                "small": "https:\/\/th.wallhaven.cc\/small\/85\/8559qy.jpg"
            }
        },
        {
            "id": "m33g7m",
            "url": "https:\/\/wallhaven.cc\/w\/m33g7m",
            "short_url": "https:\/\/whvn.cc\/m33g7m",
            "views": 114,
            "favorites": 2,
            "source": "",
            "purity": "sfw",
            "category": "people",
            "dimension_x": 4350,
            "dimension_y": 2447,
            "resolution": "4350x2447",
            "ratio": "1.78",
            "file_size": 3804338,
            "file_type": "image\/jpeg",
            "created_at": "2023-01-17 01:30:50",
            "colors": [
                "#424153",
                "#660000",
                "#000000",
                "#cc3333",
                "#999999"
            ],
            "path": "https:\/\/w.wallhaven.cc\/full\/m3\/wallhaven-m33g7m.jpg",
            "thumbs": {
                "large": "https:\/\/th.wallhaven.cc\/lg\/m3\/m33g7m.jpg",
                "original": "https:\/\/th.wallhaven.cc\/orig\/m3\/m33g7m.jpg",
                "small": "https:\/\/th.wallhaven.cc\/small\/m3\/m33g7m.jpg"
            }
        },
        {
            "id": "x66dro",
            "url": "https:\/\/wallhaven.cc\/w\/x66dro",
            "short_url": "https:\/\/whvn.cc\/x66dro",
            "views": 109,
            "favorites": 0,
            "source": "",
            "purity": "sfw",
            "category": "general",
            "dimension_x": 2560,
            "dimension_y": 1440,
            "resolution": "2560x1440",
            "ratio": "1.78",
            "file_size": 3661452,
            "file_type": "image\/png",
            "created_at": "2023-01-17 01:26:22",
            "colors": [
                "#000000",
                "#424153",
                "#663300",
                "#660000",
                "#663399"
            ],
            "path": "https:\/\/w.wallhaven.cc\/full\/x6\/wallhaven-x66dro.png",
            "thumbs": {
                "large": "https:\/\/th.wallhaven.cc\/lg\/x6\/x66dro.jpg",
                "original": "https:\/\/th.wallhaven.cc\/orig\/x6\/x66dro.jpg",
                "small": "https:\/\/th.wallhaven.cc\/small\/x6\/x66dro.jpg"
            }
        },
        {
            "id": "7ppezo",
            "url": "https:\/\/wallhaven.cc\/w\/7ppezo",
            "short_url": "https:\/\/whvn.cc\/7ppezo",
            "views": 226,
            "favorites": 3,
            "source": "https:\/\/www.artstation.com\/artwork\/8l8LyE",
            "purity": "sfw",
            "category": "general",
            "dimension_x": 3840,
            "dimension_y": 2160,
            "resolution": "3840x2160",
            "ratio": "1.78",
            "file_size": 850408,
            "file_type": "image\/jpeg",
            "created_at": "2023-01-17 01:05:54",
            "colors": [
                "#000000",
                "#424153",
                "#999999",
                "#996633",
                "#663399"
            ],
            "path": "https:\/\/w.wallhaven.cc\/full\/7p\/wallhaven-7ppezo.jpg",
            "thumbs": {
                "large": "https:\/\/th.wallhaven.cc\/lg\/7p\/7ppezo.jpg",
                "original": "https:\/\/th.wallhaven.cc\/orig\/7p\/7ppezo.jpg",
                "small": "https:\/\/th.wallhaven.cc\/small\/7p\/7ppezo.jpg"
            }
        },
        {
            "id": "6ddp87",
            "url": "https:\/\/wallhaven.cc\/w\/6ddp87",
            "short_url": "https:\/\/whvn.cc\/6ddp87",
            "views": 165,
            "favorites": 2,
            "source": "https:\/\/www.artstation.com\/artwork\/8lX1Ln",
            "purity": "sfw",
            "category": "general",
            "dimension_x": 3840,
            "dimension_y": 2160,
            "resolution": "3840x2160",
            "ratio": "1.78",
            "file_size": 403546,
            "file_type": "image\/jpeg",
            "created_at": "2023-01-17 00:45:37",
            "colors": [
                "#000000",
                "#424153",
                "#cccccc",
                "#999999",
                "#ffffff"
            ],
            "path": "https:\/\/w.wallhaven.cc\/full\/6d\/wallhaven-6ddp87.jpg",
            "thumbs": {
                "large": "https:\/\/th.wallhaven.cc\/lg\/6d\/6ddp87.jpg",
                "original": "https:\/\/th.wallhaven.cc\/orig\/6d\/6ddp87.jpg",
                "small": "https:\/\/th.wallhaven.cc\/small\/6d\/6ddp87.jpg"
            }
        },
        {
            "id": "jxxygy",
            "url": "https:\/\/wallhaven.cc\/w\/jxxygy",
            "short_url": "https:\/\/whvn.cc\/jxxygy",
            "views": 253,
            "favorites": 13,
            "source": "",
            "purity": "sfw",
            "category": "anime",
            "dimension_x": 1920,
            "dimension_y": 1080,
            "resolution": "1920x1080",
            "ratio": "1.78",
            "file_size": 3433138,
            "file_type": "image\/jpeg",
            "created_at": "2023-01-16 23:40:45",
            "colors": [
                "#424153",
                "#0099cc",
                "#66cccc",
                "#fdadc7",
                "#cc3333"
            ],
            "path": "https:\/\/w.wallhaven.cc\/full\/jx\/wallhaven-jxxygy.jpg",
            "thumbs": {
                "large": "https:\/\/th.wallhaven.cc\/lg\/jx\/jxxygy.jpg",
                "original": "https:\/\/th.wallhaven.cc\/orig\/jx\/jxxygy.jpg",
                "small": "https:\/\/th.wallhaven.cc\/small\/jx\/jxxygy.jpg"
            }
        },
        {
            "id": "l88j62",
            "url": "https:\/\/wallhaven.cc\/w\/l88j62",
            "short_url": "https:\/\/whvn.cc\/l88j62",
            "views": 91,
            "favorites": 0,
            "source": "",
            "purity": "sfw",
            "category": "general",
            "dimension_x": 3840,
            "dimension_y": 2160,
            "resolution": "3840x2160",
            "ratio": "1.78",
            "file_size": 14137939,
            "file_type": "image\/png",
            "created_at": "2023-01-16 23:23:29",
            "colors": [
                "#000000",
                "#424153",
                "#999999",
                "#996633",
                "#663300"
            ],
            "path": "https:\/\/w.wallhaven.cc\/full\/l8\/wallhaven-l88j62.png",
            "thumbs": {
                "large": "https:\/\/th.wallhaven.cc\/lg\/l8\/l88j62.jpg",
                "original": "https:\/\/th.wallhaven.cc\/orig\/l8\/l88j62.jpg",
                "small": "https:\/\/th.wallhaven.cc\/small\/l8\/l88j62.jpg"
            }
        },
        {
            "id": "5ggmx5",
            "url": "https:\/\/wallhaven.cc\/w\/5ggmx5",
            "short_url": "https:\/\/whvn.cc\/5ggmx5",
            "views": 69,
            "favorites": 0,
            "source": "",
            "purity": "sfw",
            "category": "general",
            "dimension_x": 3840,
            "dimension_y": 2160,
            "resolution": "3840x2160",
            "ratio": "1.78",
            "file_size": 14302621,
            "file_type": "image\/png",
            "created_at": "2023-01-16 23:23:29",
            "colors": [
                "#424153",
                "#000000",
                "#999999",
                "#996633",
                "#663300"
            ],
            "path": "https:\/\/w.wallhaven.cc\/full\/5g\/wallhaven-5ggmx5.png",
            "thumbs": {
                "large": "https:\/\/th.wallhaven.cc\/lg\/5g\/5ggmx5.jpg",
                "original": "https:\/\/th.wallhaven.cc\/orig\/5g\/5ggmx5.jpg",
                "small": "https:\/\/th.wallhaven.cc\/small\/5g\/5ggmx5.jpg"
            }
        },
        {
            "id": "yxx2dg",
            "url": "https:\/\/wallhaven.cc\/w\/yxx2dg",
            "short_url": "https:\/\/whvn.cc\/yxx2dg",
            "views": 78,
            "favorites": 2,
            "source": "",
            "purity": "sfw",
            "category": "general",
            "dimension_x": 3840,
            "dimension_y": 2160,
            "resolution": "3840x2160",
            "ratio": "1.78",
            "file_size": 14207850,
            "file_type": "image\/png",
            "created_at": "2023-01-16 23:23:29",
            "colors": [
                "#424153",
                "#000000",
                "#999999",
                "#996633",
                "#663300"
            ],
            "path": "https:\/\/w.wallhaven.cc\/full\/yx\/wallhaven-yxx2dg.png",
            "thumbs": {
                "large": "https:\/\/th.wallhaven.cc\/lg\/yx\/yxx2dg.jpg",
                "original": "https:\/\/th.wallhaven.cc\/orig\/yx\/yxx2dg.jpg",
                "small": "https:\/\/th.wallhaven.cc\/small\/yx\/yxx2dg.jpg"
            }
        },
        {
            "id": "3ll6p3",
            "url": "https:\/\/wallhaven.cc\/w\/3ll6p3",
            "short_url": "https:\/\/whvn.cc\/3ll6p3",
            "views": 335,
            "favorites": 13,
            "source": "",
            "purity": "sketchy",
            "category": "people",
            "dimension_x": 3840,
            "dimension_y": 2160,
            "resolution": "3840x2160",
            "ratio": "1.78",
            "file_size": 6740157,
            "file_type": "image\/png",
            "created_at": "2023-01-16 23:14:29",
            "colors": [
                "#000000",
                "#999999",
                "#424153",
                "#996633",
                "#663300"
            ],
            "path": "https:\/\/w.wallhaven.cc\/full\/3l\/wallhaven-3ll6p3.png",
            "thumbs": {
                "large": "https:\/\/th.wallhaven.cc\/lg\/3l\/3ll6p3.jpg",
                "original": "https:\/\/th.wallhaven.cc\/orig\/3l\/3ll6p3.jpg",
                "small": "https:\/\/th.wallhaven.cc\/small\/3l\/3ll6p3.jpg"
            }
        },
        {
            "id": "2yyomy",
            "url": "https:\/\/wallhaven.cc\/w\/2yyomy",
            "short_url": "https:\/\/whvn.cc\/2yyomy",
            "views": 541,
            "favorites": 50,
            "source": "",
            "purity": "sketchy",
            "category": "people",
            "dimension_x": 1920,
            "dimension_y": 1280,
            "resolution": "1920x1280",
            "ratio": "1.5",
            "file_size": 546702,
            "file_type": "image\/jpeg",
            "created_at": "2023-01-16 23:13:04",
            "colors": [
                "#424153",
                "#000000",
                "#999999",
                "#cccccc",
                "#663399"
            ],
            "path": "https:\/\/w.wallhaven.cc\/full\/2y\/wallhaven-2yyomy.jpg",
            "thumbs": {
                "large": "https:\/\/th.wallhaven.cc\/lg\/2y\/2yyomy.jpg",
                "original": "https:\/\/th.wallhaven.cc\/orig\/2y\/2yyomy.jpg",
                "small": "https:\/\/th.wallhaven.cc\/small\/2y\/2yyomy.jpg"
            }
        },
        {
            "id": "p997dp",
            "url": "https:\/\/wallhaven.cc\/w\/p997dp",
            "short_url": "https:\/\/whvn.cc\/p997dp",
            "views": 311,
            "favorites": 16,
            "source": "",
            "purity": "sketchy",
            "category": "people",
            "dimension_x": 5616,
            "dimension_y": 3744,
            "resolution": "5616x3744",
            "ratio": "1.5",
            "file_size": 7186388,
            "file_type": "image\/jpeg",
            "created_at": "2023-01-16 22:19:08",
            "colors": [
                "#424153",
                "#cccccc",
                "#999999",
                "#000000",
                "#abbcda"
            ],
            "path": "https:\/\/w.wallhaven.cc\/full\/p9\/wallhaven-p997dp.jpg",
            "thumbs": {
                "large": "https:\/\/th.wallhaven.cc\/lg\/p9\/p997dp.jpg",
                "original": "https:\/\/th.wallhaven.cc\/orig\/p9\/p997dp.jpg",
                "small": "https:\/\/th.wallhaven.cc\/small\/p9\/p997dp.jpg"
            }
        },
        {
            "id": "weed7q",
            "url": "https:\/\/wallhaven.cc\/w\/weed7q",
            "short_url": "https:\/\/whvn.cc\/weed7q",
            "views": 239,
            "favorites": 14,
            "source": "",
            "purity": "sfw",
            "category": "general",
            "dimension_x": 3840,
            "dimension_y": 2160,
            "resolution": "3840x2160",
            "ratio": "1.78",
            "file_size": 3766638,
            "file_type": "image\/jpeg",
            "created_at": "2023-01-16 22:00:27",
            "colors": [
                "#333399",
                "#424153",
                "#999999",
                "#000000",
                "#996633"
            ],
            "path": "https:\/\/w.wallhaven.cc\/full\/we\/wallhaven-weed7q.jpg",
            "thumbs": {
                "large": "https:\/\/th.wallhaven.cc\/lg\/we\/weed7q.jpg",
                "original": "https:\/\/th.wallhaven.cc\/orig\/we\/weed7q.jpg",
                "small": "https:\/\/th.wallhaven.cc\/small\/we\/weed7q.jpg"
            }
        }
    ],
    "meta": {
        "current_page": 1,
        "last_page": 24410,
        "per_page": "24",
        "total": 585840,
        "query": null,
        "seed": null
    }
}